…
Note that `slice_sample()` selects a random set of rows from the tibble. If you use the argument `n`, as here, you get back that many rows. Use the argue `prop` to return a specific percentage of all the rows in the tibble.

`str_detect()` determines if a character vector matches a pattern.  It returns a logical vector that is the same length as the input. Recall logicals are either `TRUE` or `FALSE`.

Which fruit names actually include the letter "c?"


```r
tbl_fruit %>% 
  mutate(fruit_in_name = str_detect(fruit, pattern = "c")) 
```

```
## # A tibble: 80 x 2
##    fruit        fruit_in_name
##    <chr>        <lgl>        
##  1 apple        FALSE        
##  2 apricot      TRUE         
##  3 avocado      TRUE         
##  4 banana       FALSE        
##  5 bell pepper  FALSE        
##  6 bilberry     FALSE        
##  7 blackberry   TRUE         
##  8 blackcurrant TRUE         
##  9 blood orange FALSE        
## 10 blueberry    FALSE        
## # … with 70 more rows
```


`str_length()` counts characters in your strings. Note this is different from the `length()` of the character vector itself.


```r
tbl_fruit %>% 
  mutate(name_length = str_length(fruit)) 
```

```
## # A tibble: 80 x 2
##    fruit        name_length
##    <chr>              <int>
##  1 apple                  5
##  2 apricot                7
##  3 avocado                7
##  4 banana                 6
##  5 bell pepper           11
##  6 bilberry               8
##  7 blackberry            10
##  8 blackcurrant          12
##  9 blood orange          12
## 10 blueberry              9
## # … with 70 more rows
```

`str_sub()` extracts parts of a string. The function takes start and end arguments which are vectorised.


```r
tbl_fruit %>% 
  mutate(first_three_letters = str_sub(fruit, 1, 3)) 
```

```
## # A tibble: 80 x 2
##    fruit        first_three_letters
##    <chr>        <chr>              
##  1 apple        app                
##  2 apricot      apr                
##  3 avocado      avo                
##  4 banana       ban                
##  5 bell pepper  bel                
##  6 bilberry     bil                
##  7 blackberry   bla                
##  8 blackcurrant bla                
##  9 blood orange blo                
## 10 blueberry    blu                
## # … with 70 more rows
```

`str_c()` combines a character vector of length to a single string. This is similar to the normal `c()` function for creating a vector.


```r
tbl_fruit %>% 
  mutate(name_with_s = str_c(fruit, "s")) 
```

```
## # A tibble: 80 x 2
##    fruit        name_with_s  
##    <chr>        <chr>        
##  1 apple        apples       
##  2 apricot      apricots     
##  3 avocado      avocados     
##  4 banana       bananas      
##  5 bell pepper  bell peppers 
##  6 bilberry     bilberrys    
##  7 blackberry   blackberrys  
##  8 blackcurrant blackcurrants
##  9 blood orange blood oranges
## 10 blueberry    blueberrys   
## # … with 70 more rows
```

`str_replace()` replaces a pattern within a string.


```r
tbl_fruit %>% 
  mutate(capital_A = str_replace(fruit, 
                                 pattern = "a", 
                                 replacement = "A")) 
```

```
## # A tibble: 80 x 2
##    fruit        capital_A   
##    <chr>        <chr>       
##  1 apple        Apple       
##  2 apricot      Apricot     
##  3 avocado      Avocado     
##  4 banana       bAnana      
##  5 bell pepper  bell pepper 
##  6 bilberry     bilberry    
##  7 blackberry   blAckberry  
##  8 blackcurrant blAckcurrant
##  9 blood orange blood orAnge
## 10 blueberry    blueberry   
## # … with 70 more rows
```
…
### From individual components

Instead of a single string, sometimes you'll have the individual components of the date-time spread across multiple columns. This is what we have in the flights data:


```r
flights %>% 
  select(year, month, day, hour, minute)
```

```
## # A tibble: 336,776 x 5
##     year month   day  hour minute
##    <int> <int> <int> <dbl>  <dbl>
##  1  2013     1     1     5     15
##  2  2013     1     1     5     29
##  3  2013     1     1     5     40
##  4  2013     1     1     5     45
##  5  2013     1     1     6      0
##  6  2013     1     1     5     58
##  7  2013     1     1     6      0
##  8  2013     1     1     6      0
##  9  2013     1     1     6      0
## 10  2013     1     1     6      0
## # … with 336,766 more rows
```

To create a date/time from this sort of input, use `make_date()` for dates, or `make_datetime()` for date-times:


```r
flights %>% 
  select(year, month, day, hour, minute) %>% 
  mutate(departure = make_datetime(year, month, day, hour, minute))
```

```
## # A tibble: 336,776 x 6
##     year month   day  hour minute departure          
##    <int> <int> <int> <dbl>  <dbl> <dttm>             
##  1  2013     1     1     5     15 2013-01-01 05:15:00
##  2  2013     1     1     5     29 2013-01-01 05:29:00
##  3  2013     1     1     5     40 2013-01-01 05:40:00
##  4  2013     1     1     5     45 2013-01-01 05:45:00
##  5  2013     1     1     6      0 2013-01-01 06:00:00
##  6  2013     1     1     5     58 2013-01-01 05:58:00
##  7  2013     1     1     6      0 2013-01-01 06:00:00
##  8  2013     1     1     6      0 2013-01-01 06:00:00
##  9  2013     1     1     6      0 2013-01-01 06:00:00
## 10  2013     1     1     6      0 2013-01-01 06:00:00
## # … with 336,766 more rows
```
…
In both the `flights` and `airlines` data frames, the key variable we want to join/merge/match the rows by has the same name: `carrier`. Let's use `inner_join()` to join the two data frames, where the rows will be matched by the variable `carrier`


```r
flights %>% 
  inner_join(airlines, by = "carrier")
```

```
## # A tibble: 336,776 x 20
##     year month   day dep_time sched_dep_time dep_delay arr_time sched_arr_time arr_delay carrier flight tailnum
##    <int> <int> <int>    <int>          <int>     <dbl>    <int>          <int>     <dbl> <chr>    <int> <chr>  
##  1  2013     1     1      517            515         2      830            819        11 UA        1545 N14228 
##  2  2013     1     1      533            529         4      850            830        20 UA        1714 N24211 
##  3  2013     1     1      542            540         2      923            850        33 AA        1141 N619AA 
##  4  2013     1     1      544            545        -1     1004           1022       -18 B6         725 N804JB 
##  5  2013     1     1      554            600        -6      812            837       -25 DL         461 N668DN 
##  6  2013     1     1      554            558        -4      740            728        12 UA        1696 N39463 
##  7  2013     1     1      555            600        -5      913            854        19 B6         507 N516JB 
##  8  2013     1     1      557            600        -3      709            723       -14 EV        5708 N829AS 
##  9  2013     1     1      557            600        -3      838            846        -8 B6          79 N593JB 
## 10  2013     1     1      558            600        -2      753            745         8 AA         301 N3ALAA 
## # … with 336,766 more rows, and 8 more variables: origin <chr>, dest <chr>, air_time <dbl>, distance <dbl>,
## #   hour <dbl>, minute <dbl>, time_hour <dttm>, name <chr>
```
…
```r
inner_join(flights, airlines, by = "carrier")
```

The `airports` data frame contains the airport codes for each airport:


```r
airports
```

```
## # A tibble: 1,458 x 8
##    faa   name                             lat    lon   alt    tz dst   tzone              
##    <chr> <chr>                          <dbl>  <dbl> <dbl> <dbl> <chr> <chr>              
##  1 04G   Lansdowne Airport               41.1  -80.6  1044    -5 A     America/New_York   
##  2 06A   Moton Field Municipal Airport   32.5  -85.7   264    -6 A     America/Chicago    
##  3 06C   Schaumburg Regional             42.0  -88.1   801    -6 A     America/Chicago    
##  4 06N   Randall Airport                 41.4  -74.4   523    -5 A     America/New_York   
##  5 09J   Jekyll Island Airport           31.1  -81.4    11    -5 A     America/New_York   
##  6 0A9   Elizabethton Municipal Airport  36.4  -82.2  1593    -5 A     America/New_York   
##  7 0G6   Williams County Airport         41.5  -84.5   730    -5 A     America/New_York   
##  8 0G7   Finger Lakes Regional Airport   42.9  -76.8   492    -5 A     America/New_York   
##  9 0P2   Shoestring Aviation Airfield    39.8  -76.6  1000    -5 U     America/New_York   
## 10 0S9   Jefferson County Intl           48.1 -123.    108    -8 A     America/Los_Angeles
## # … with 1,448 more rows
```

However, if you look at both the `airports` and `flights` data frames, you'll find that the airport codes are in variables that have different names. In `airports` the airport code is in `faa`, whereas in `flights` the airport codes are in `origin` and `dest`. 

In order to join these two data frames by airport code, our `inner_join()` operation will use `by = c("dest" = "faa")` thereby allowing us to join two data frames where the key variable has a different name.


```r
flights %>% 
  inner_join(airports, by = c("dest" = "faa"))
```

```
## # A tibble: 329,174 x 26
##     year month   day dep_time sched_dep_time dep_delay arr_time sched_arr_time arr_delay carrier flight tailnum
##    <int> <int> <int>    <int>          <int>     <dbl>    <int>          <int>     <dbl> <chr>    <int> <chr>  
##  1  2013     1     1      517            515         2      830            819        11 UA        1545 N14228 
##  2  2013     1     1      533            529         4      850            830        20 UA        1714 N24211 
##  3  2013     1     1      542            540         2      923            850        33 AA        1141 N619AA 
##  4  2013     1     1      554            600        -6      812            837       -25 DL         461 N668DN 
##  5  2013     1     1      554            558        -4      740            728        12 UA        1696 N39463 
##  6  2013     1     1      555            600        -5      913            854        19 B6         507 N516JB 
##  7  2013     1     1      557            600        -3      709            723       -14 EV        5708 N829AS 
##  8  2013     1     1      557            600        -3      838            846        -8 B6          79 N593JB 
##  9  2013     1     1      558            600        -2      753            745         8 AA         301 N3ALAA 
## 10  2013     1     1      558            600        -2      849            851        -2 B6          49 N793JB 
## # … with 329,164 more rows, and 14 more variables: origin <chr>, dest <chr>, air_time <dbl>, distance <dbl>,
## #   hour <dbl>, minute <dbl>, time_hour <dttm>, name <chr>, lat <dbl>, lon <dbl>, alt <dbl>, tz <dbl>, dst <chr>,
## #   tzone <chr>
```
Let's construct the chain of pipe operators `%>%` that computes the number of flights from NYC to each destination, but also includes information about each destination airport:


```r
flights %>%
  group_by(dest) %>%
  summarize(num_flights = n(),
            .groups = "drop") %>%
  arrange(desc(num_flights)) %>%
  inner_join(airports, by = c("dest" = "faa")) %>%
  rename(airport_name = name)
```

```
## # A tibble: 101 x 9
##    dest  num_flights airport_name                         lat    lon   alt    tz dst   tzone              
##    <chr>       <int> <chr>                              <dbl>  <dbl> <dbl> <dbl> <chr> <chr>              
##  1 ORD         17283 Chicago Ohare Intl                  42.0  -87.9   668    -6 A     America/Chicago    
##  2 ATL         17215 Hartsfield Jackson Atlanta Intl     33.6  -84.4  1026    -5 A     America/New_York   
##  3 LAX         16174 Los Angeles Intl                    33.9 -118.    126    -8 A     America/Los_Angeles
##  4 BOS         15508 General Edward Lawrence Logan Intl  42.4  -71.0    19    -5 A     America/New_York   
##  5 MCO         14082 Orlando Intl                        28.4  -81.3    96    -5 A     America/New_York   
##  6 CLT         14064 Charlotte Douglas Intl              35.2  -80.9   748    -5 A     America/New_York   
##  7 SFO         13331 San Francisco Intl                  37.6 -122.     13    -8 A     America/Los_Angeles
##  8 FLL         12055 Fort Lauderdale Hollywood Intl      26.1  -80.2     9    -5 A     America/New_York   
##  9 MIA         11728 Miami Intl                          25.8  -80.3     8    -5 A     America/New_York   
## 10 DCA          9705 Ronald Reagan Washington Natl       38.9  -77.0    15    -5 A     America/New_York   
## # … with 91 more rows
```
…
